Example Quarto Site for R – Sample Analysis
…
Reading in the best BLAST hit info:

amoA_organism_info <- readxl::read_xlsx("data/amoa_mfp_qpcr_org_accessions.xlsx", sheet = 5) %>% 
  select(-c(contains(c("forward", "reverse", "notes")))) 

Counts of best BLAST hits:

amoA_organism_info %>% 
  count(best_blast_hits, sort = TRUE) 

# A tibble: 25 x 2
   best_blast_hits                               n
   <chr>                                     <int>
 1 Nitrosolobus multiformis AmoA (amoA) gene    10
 2 Nitrosospira sp. En13 AmoA                    9
 3 Nitrosospira multiformis ATCC 25196           7
 4 Nitrosospira sp. Wyke8 AmoA                   7
 5 Nitrosospira lacus strain APG3                6
 6 Nitrosospira sp. Np39-19                      6
 7 Nitrosospira sp. Wyke2                        4
 8 Nitrosospira sp. NpAV                         3
 9 Nitrosomonas sp. JL21                         2
10 Nitrosospira briensis                         2
# ... with 15 more rows
…
